{
    "ResponseMetadata": {
        "RequestId": "36e9366d-4503-4e5a-9419-d2b059bc2e37",
        "HTTPStatusCode": 200,
        "HTTPHeaders": {
            "date": "Mon, 25 Mar 2019 22:00:48 GMT",
            "content-type": "application/json",
            "content-length": "73",
            "connection": "keep-alive",
            "x-amzn-requestid": "36e9366d-4503-4e5a-9419-d2b059bc2e37"
        },
        "RetryAttempts": 0
    },
    "sqlStatementResults": [
        {
            "numberOfRecordsUpdated": 1
        }
    ]
}
