{
    "ResponseMetadata": {
        "RequestId": "35617cbf-72f5-4dc8-8927-bab49f41dde3",
        "HTTPStatusCode": 200,
        "HTTPHeaders": {
            "x-amzn-requestid": "35617cbf-72f5-4dc8-8927-bab49f41dde3",
            "content-type": "application/json",
            "content-length": "1498",
            "date": "Fri, 05 Jul 2019 04:46:48 GMT"
        },
        "RetryAttempts": 0
    },
    "columnMetadata": [
        {
            "arrayBaseColumnType": 0,
            "isAutoIncrement": true,
            "isCaseSensitive": false,
            "isCurrency": false,
            "isSigned": false,
            "label": "productID",
            "name": "productID",
            "nullable": 0,
            "precision": 10,
            "scale": 0,
            "schemaName": "",
            "tableName": "test",
            "type": 4,
            "typeName": "INT UNSIGNED"
        },
        {
            "arrayBaseColumnType": 0,
            "isAutoIncrement": false,
            "isCaseSensitive": false,
            "isCurrency": false,
            "isSigned": false,
            "label": "productCode",
            "name": "productCode",
            "nullable": 0,
            "precision": 3,
            "scale": 0,
            "schemaName": "",
            "tableName": "test",
            "type": 1,
            "typeName": "CHAR"
        },
        {
            "arrayBaseColumnType": 0,
            "isAutoIncrement": false,
            "isCaseSensitive": false,
            "isCurrency": false,
            "isSigned": false,
            "label": "name",
            "name": "name",
            "nullable": 0,
            "precision": 30,
            "scale": 0,
            "schemaName": "",
            "tableName": "test",
            "type": 12,
            "typeName": "VARCHAR"
        },
        {
            "arrayBaseColumnType": 0,
            "isAutoIncrement": false,
            "isCaseSensitive": false,
            "isCurrency": false,
            "isSigned": true,
            "label": "quantity",
            "name": "quantity",
            "nullable": 1,
            "precision": 11,
            "scale": 0,
            "schemaName": "",
            "tableName": "test",
            "type": 4,
            "typeName": "INT"
        },
        {
            "arrayBaseColumnType": 0,
            "isAutoIncrement": false,
            "isCaseSensitive": true,
            "isCurrency": false,
            "isSigned": true,
            "label": "price",
            "name": "price",
            "nullable": 0,
            "precision": 7,
            "scale": 2,
            "schemaName": "",
            "tableName": "test",
            "type": 3,
            "typeName": "DECIMAL"
        }
    ],
    "numberOfRecordsUpdated": 0,
    "records": [
        [
            {
                "longValue": 1
            },
            {
                "stringValue": "ABC"
            },
            {
                "stringValue": "Test1"
            },
            {
                "isNull": true
            },
            {
                "doubleValue": 3.45
            }
        ],
        [
            {
                "longValue": 2
            },
            {
                "stringValue": "EFG"
            },
            {
                "stringValue": "Test2"
            },
            {
                "longValue": 23
            },
            {
                "doubleValue": 0.0
            }
        ]
    ]
}