{
    "ResponseMetadata": {
        "RequestId": "924d030d-a032-47c0-a297-71675453cdf7",
        "HTTPStatusCode": 200,
        "HTTPHeaders": {
            "date": "Mon, 25 Mar 2019 21:41:28 GMT",
            "content-type": "application/json",
            "content-length": "19857",
            "connection": "keep-alive",
            "x-amzn-requestid": "924d030d-a032-47c0-a297-71675453cdf7"
        },
        "RetryAttempts": 0
    },
    "sqlStatementResults": [
        {
            "numberOfRecordsUpdated": -1,
            "resultFrame": {
                "records": [
                    {
                        "values": [
                            {
                                "stringValue": "24726bb2-5471-4852-83d0-633c7b9aa228"
                            },
                            {
                                "realValue": 38.099998474121094
                            },
                            {
                                "realValue": 38.099998474121094
                            },
                            {
                                "stringValue": "2019-01-27 10:12:45.345"
                            },
                            {
                                "stringValue": "8399c574-eef8-4d8e-ba2d-86d459681fb9"
                            },
                            {
                                "stringValue": "52045b30-853f-4940-b4b0-fe8759542eef"
                            },
                            {
                                "realValue": 0.0
                            },
                            {
                                "realValue": 0.0
                            },
                            {
                                "realValue": 96.0
                            },
                            {
                                "stringValue": "{\"name\":\"value\"}"
                            },
                            {
                                "stringValue": "2019-03-18 22:27:13.707"
                            },
                            {
                                "stringValue": "[{\"type\":\"OTHER\",\"value\":\"Cold\"}]"
                            },
                            {
                                "stringValue": "[{\"type\":\"COUGHING\"}]"
                            }
                        ]
                    },
                    {
                        "values": [
                            {
                                "stringValue": "5ab6fcdd-60f2-41f3-a9da-d2765f2ef3b6"
                            },
                            {
                                "realValue": 38.099998474121094
                            },
                            {
                                "realValue": 38.099998474121094
                            },
                            {
                                "stringValue": "2019-01-27 10:12:45.345"
                            },
                            {
                                "stringValue": "6f3df173-41ae-4604-bc55-179bc1989c40"
                            },
                            {
                                "stringValue": "88dfaa0d-429d-49e1-817d-823405871566"
                            },
                            {
                                "realValue": 0.0
                            },
                            {
                                "realValue": 0.0
                            },
                            {
                                "realValue": 96.0
                            },
                            {
                                "stringValue": "{\"name\":\"value\"}"
                            },
                            {
                                "stringValue": "2019-03-18 22:27:24.822"
                            },
                            {
                                "stringValue": "[{\"type\":\"OTHER\",\"value\":\"Cold\"}]"
                            },
                            {
                                "stringValue": "[{\"type\":\"COUGHING\"}]"
                            }
                        ]
                    },
                    {
                        "values": [
                            {
                                "stringValue": "6f8fc386-3168-49ec-b5db-f13c3cba6f7d"
                            },
                            {
                                "realValue": 38.099998474121094
                            },
                            {
                                "realValue": 38.099998474121094
                            },
                            {
                                "stringValue": "2019-01-27 10:12:45.345"
                            },
                            {
                                "stringValue": "c1b5de82-6114-41f6-8aac-f821ac6e85b4"
                            },
                            {
                                "stringValue": "eabd201e-2f66-405e-85bc-7eb9c5e42ad9"
                            },
                            {
                                "realValue": 0.0
                            },
                            {
                                "realValue": 0.0
                            },
                            {
                                "realValue": 96.0
                            },
                            {
                                "stringValue": "{\"name\":\"value\"}"
                            },
                            {
                                "stringValue": "2019-03-18 22:27:23.234"
                            },
                            {
                                "stringValue": "[{\"type\":\"OTHER\",\"value\":\"Cold\"}]"
                            },
                            {
                                "stringValue": "[{\"type\":\"COUGHING\"}]"
                            }
                        ]
                    }
                ],
                "resultSetMetadata": {
                    "columnCount": 13,
                    "columnMetadata": [
                        {
                            "arrayBaseColumnType": 0,
                            "isAutoIncrement": false,
                            "isCaseSensitive": false,
                            "isCurrency": false,
                            "isSigned": false,
                            "label": "id",
                            "name": "id",
                            "nullable": 0,
                            "precision": 40,
                            "scale": 0,
                            "schemaName": "",
                            "tableName": "recording",
                            "type": 12,
                            "typeName": "VARCHAR"
                        },
                        {
                            "arrayBaseColumnType": 0,
                            "isAutoIncrement": false,
                            "isCaseSensitive": false,
                            "isCurrency": false,
                            "isSigned": true,
                            "label": "locationLat",
                            "name": "locationLat",
                            "nullable": 0,
                            "precision": 12,
                            "scale": 31,
                            "schemaName": "",
                            "tableName": "recording",
                            "type": 7,
                            "typeName": "FLOAT"
                        },
                        {
                            "arrayBaseColumnType": 0,
                            "isAutoIncrement": false,
                            "isCaseSensitive": false,
                            "isCurrency": false,
                            "isSigned": true,
                            "label": "locationLong",
                            "name": "locationLong",
                            "nullable": 0,
                            "precision": 12,
                            "scale": 31,
                            "schemaName": "",
                            "tableName": "recording",
                            "type": 7,
                            "typeName": "FLOAT"
                        },
                        {
                            "arrayBaseColumnType": 0,
                            "isAutoIncrement": false,
                            "isCaseSensitive": false,
                            "isCurrency": false,
                            "isSigned": false,
                            "label": "recordedAt",
                            "name": "recordedAt",
                            "nullable": 1,
                            "precision": 23,
                            "scale": 0,
                            "schemaName": "",
                            "tableName": "recording",
                            "type": 93,
                            "typeName": "DATETIME"
                        },
                        {
                            "arrayBaseColumnType": 0,
                            "isAutoIncrement": false,
                            "isCaseSensitive": false,
                            "isCurrency": false,
                            "isSigned": false,
                            "label": "recordingFileId",
                            "name": "recordingFileId",
                            "nullable": 0,
                            "precision": 40,
                            "scale": 0,
                            "schemaName": "",
                            "tableName": "recording",
                            "type": 12,
                            "typeName": "VARCHAR"
                        },
                        {
                            "arrayBaseColumnType": 0,
                            "isAutoIncrement": false,
                            "isCaseSensitive": false,
                            "isCurrency": false,
                            "isSigned": false,
                            "label": "ambientRecordingFileId",
                            "name": "ambientRecordingFileId",
                            "nullable": 0,
                            "precision": 40,
                            "scale": 0,
                            "schemaName": "",
                            "tableName": "recording",
                            "type": 12,
                            "typeName": "VARCHAR"
                        },
                        {
                            "arrayBaseColumnType": 0,
                            "isAutoIncrement": false,
                            "isCaseSensitive": false,
                            "isCurrency": false,
                            "isSigned": true,
                            "label": "wheezeRate",
                            "name": "wheezeRate",
                            "nullable": 0,
                            "precision": 12,
                            "scale": 31,
                            "schemaName": "",
                            "tableName": "recording",
                            "type": 7,
                            "typeName": "FLOAT"
                        },
                        {
                            "arrayBaseColumnType": 0,
                            "isAutoIncrement": false,
                            "isCaseSensitive": false,
                            "isCurrency": false,
                            "isSigned": true,
                            "label": "wheezeRateNoAwr",
                            "name": "wheezeRateNoAwr",
                            "nullable": 0,
                            "precision": 12,
                            "scale": 31,
                            "schemaName": "",
                            "tableName": "recording",
                            "type": 7,
                            "typeName": "FLOAT"
                        },
                        {
                            "arrayBaseColumnType": 0,
                            "isAutoIncrement": false,
                            "isCaseSensitive": false,
                            "isCurrency": false,
                            "isSigned": true,
                            "label": "batteryLevel",
                            "name": "batteryLevel",
                            "nullable": 0,
                            "precision": 12,
                            "scale": 31,
                            "schemaName": "",
                            "tableName": "recording",
                            "type": 7,
                            "typeName": "FLOAT"
                        },
                        {
                            "arrayBaseColumnType": 0,
                            "isAutoIncrement": false,
                            "isCaseSensitive": false,
                            "isCurrency": false,
                            "isSigned": false,
                            "label": "metadata",
                            "name": "metadata",
                            "nullable": 0,
                            "precision": 500,
                            "scale": 0,
                            "schemaName": "",
                            "tableName": "recording",
                            "type": 12,
                            "typeName": "VARCHAR"
                        },
                        {
                            "arrayBaseColumnType": 0,
                            "isAutoIncrement": false,
                            "isCaseSensitive": false,
                            "isCurrency": false,
                            "isSigned": false,
                            "label": "createdAt",
                            "name": "createdAt",
                            "nullable": 1,
                            "precision": 23,
                            "scale": 0,
                            "schemaName": "",
                            "tableName": "recording",
                            "type": 93,
                            "typeName": "DATETIME"
                        },
                        {
                            "arrayBaseColumnType": 0,
                            "isAutoIncrement": false,
                            "isCaseSensitive": false,
                            "isCurrency": false,
                            "isSigned": false,
                            "label": "triggers",
                            "name": "triggers",
                            "nullable": 0,
                            "precision": 65535,
                            "scale": 0,
                            "schemaName": "",
                            "tableName": "recording",
                            "type": -1,
                            "typeName": "TEXT"
                        },
                        {
                            "arrayBaseColumnType": 0,
                            "isAutoIncrement": false,
                            "isCaseSensitive": false,
                            "isCurrency": false,
                            "isSigned": false,
                            "label": "symptoms",
                            "name": "symptoms",
                            "nullable": 0,
                            "precision": 65535,
                            "scale": 0,
                            "schemaName": "",
                            "tableName": "recording",
                            "type": -1,
                            "typeName": "TEXT"
                        }
                    ]
                }
            }
        },
        {
            "numberOfRecordsUpdated": -1,
            "resultFrame": {
                "records": [
                    {
                        "values": [
                            {
                                "stringValue": "01a0e8ab-b379-41a9-a547-5dcb393f172a"
                            },
                            {
                                "stringValue": "3f692d1b-7854-4429-9805-de03e2b05e24"
                            },
                            {
                                "stringValue": "Test 1"
                            },
                            {
                                "stringValue": "2019-03-18 00:06:06.641"
                            },
                            {
                                "isNull": true
                            },
                            {
                                "isNull": true
                            },
                            {
                                "stringValue": "AVATAR_0"
                            }
                        ]
                    },
                    {
                        "values": [
                            {
                                "stringValue": "0cca4831-cc21-4928-b973-85f640fd9a11"
                            },
                            {
                                "stringValue": "94ce5658-0314-472c-b09e-6ad32e0b4c1f"
                            },
                            {
                                "stringValue": "Test 1"
                            },
                            {
                                "stringValue": "2019-03-08 02:42:02.177"
                            },
                            {
                                "isNull": true
                            },
                            {
                                "isNull": true
                            },
                            {
                                "stringValue": "AVATAR_0"
                            }
                        ]
                    },
                    {
                        "values": [
                            {
                                "stringValue": "17d3aace-02e7-4cd4-b6ec-a40273cf4f76"
                            },
                            {
                                "stringValue": "83a8d293-47b1-4422-af8c-374db9803fdd"
                            },
                            {
                                "stringValue": "Test 1"
                            },
                            {
                                "stringValue": "2019-03-18 21:58:36.146"
                            },
                            {
                                "stringValue": "01/12/1990"
                            },
                            {
                                "stringValue": "F"
                            },
                            {
                                "stringValue": "AVATAR_0"
                            }
                        ]
                    },
                    {
                        "values": [
                            {
                                "stringValue": "254ee611-e88f-4533-acf0-540638ddfc6e"
                            },
                            {
                                "stringValue": "293e89eb-ce01-4233-8195-debb56ae6ccd"
                            },
                            {
                                "stringValue": "Test 1"
                            },
                            {
                                "stringValue": "2019-03-18 00:05:45.154"
                            },
                            {
                                "stringValue": "01/12/1990"
                            },
                            {
                                "stringValue": "F"
                            },
                            {
                                "stringValue": "AVATAR_0"
                            }
                        ]
                    },
                    {
                        "values": [
                            {
                                "stringValue": "2a19676c-0ac7-4578-87d0-239638127e8e"
                            },
                            {
                                "stringValue": "700db234-508f-48c2-8e08-cf20e43d1ff7"
                            },
                            {
                                "stringValue": "Test 1"
                            },
                            {
                                "stringValue": "2019-03-08 02:37:03.471"
                            },
                            {
                                "stringValue": "01/12/1990"
                            },
                            {
                                "stringValue": "F"
                            },
                            {
                                "stringValue": "AVATAR_0"
                            }
                        ]
                    }
                ],
                "resultSetMetadata": {
                    "columnCount": 7,
                    "columnMetadata": [
                        {
                            "arrayBaseColumnType": 0,
                            "isAutoIncrement": false,
                            "isCaseSensitive": false,
                            "isCurrency": false,
                            "isSigned": false,
                            "label": "id",
                            "name": "id",
                            "nullable": 0,
                            "precision": 40,
                            "scale": 0,
                            "schemaName": "",
                            "tableName": "profile",
                            "type": 12,
                            "typeName": "VARCHAR"
                        },
                        {
                            "arrayBaseColumnType": 0,
                            "isAutoIncrement": false,
                            "isCaseSensitive": false,
                            "isCurrency": false,
                            "isSigned": false,
                            "label": "accountId",
                            "name": "accountId",
                            "nullable": 0,
                            "precision": 40,
                            "scale": 0,
                            "schemaName": "",
                            "tableName": "profile",
                            "type": 12,
                            "typeName": "VARCHAR"
                        },
                        {
                            "arrayBaseColumnType": 0,
                            "isAutoIncrement": false,
                            "isCaseSensitive": false,
                            "isCurrency": false,
                            "isSigned": false,
                            "label": "name",
                            "name": "name",
                            "nullable": 0,
                            "precision": 255,
                            "scale": 0,
                            "schemaName": "",
                            "tableName": "profile",
                            "type": 12,
                            "typeName": "VARCHAR"
                        },
                        {
                            "arrayBaseColumnType": 0,
                            "isAutoIncrement": false,
                            "isCaseSensitive": false,
                            "isCurrency": false,
                            "isSigned": false,
                            "label": "createdAt",
                            "name": "createdAt",
                            "nullable": 0,
                            "precision": 23,
                            "scale": 0,
                            "schemaName": "",
                            "tableName": "profile",
                            "type": 93,
                            "typeName": "DATETIME"
                        },
                        {
                            "arrayBaseColumnType": 0,
                            "isAutoIncrement": false,
                            "isCaseSensitive": false,
                            "isCurrency": false,
                            "isSigned": false,
                            "label": "dob",
                            "name": "dob",
                            "nullable": 1,
                            "precision": 10,
                            "scale": 0,
                            "schemaName": "",
                            "tableName": "profile",
                            "type": 12,
                            "typeName": "VARCHAR"
                        },
                        {
                            "arrayBaseColumnType": 0,
                            "isAutoIncrement": false,
                            "isCaseSensitive": false,
                            "isCurrency": false,
                            "isSigned": false,
                            "label": "gender",
                            "name": "gender",
                            "nullable": 1,
                            "precision": 1,
                            "scale": 0,
                            "schemaName": "",
                            "tableName": "profile",
                            "type": 1,
                            "typeName": "CHAR"
                        },
                        {
                            "arrayBaseColumnType": 0,
                            "isAutoIncrement": false,
                            "isCaseSensitive": false,
                            "isCurrency": false,
                            "isSigned": false,
                            "label": "avatar",
                            "name": "avatar",
                            "nullable": 0,
                            "precision": 20,
                            "scale": 0,
                            "schemaName": "",
                            "tableName": "profile",
                            "type": 12,
                            "typeName": "VARCHAR"
                        }
                    ]
                }
            }
        }
    ]
}
